<?xml version="1.0" encoding="utf-8"?>
<!-- Svg Vector Icons : http://www.onlinewebfonts.com/icon -->
<!DOCTYPE svg PUBLIC "-//W3C//DTD SVG 1.1//EN" "http://www.w3.org/Graphics/SVG/1.1/DTD/svg11.dtd">
<svg version="1.1" xmlns="http://www.w3.org/2000/svg" xmlns:xlink="http://www.w3.org/1999/xlink" x="0px" y="0px" viewBox="0 0 1000 1000" enable-background="new 0 0 1000 1000" xml:space="preserve">
<metadata> Svg Vector Icons : http://www.onlinewebfonts.com/icon </metadata>
<g><g transform="translate(0.000000,511.000000) scale(0.100000,-0.100000)"><path d="M3590.4,3178.8c-840-65.2-1597.5-573.4-1977.3-1327.1c-163-320.3-257-686.6-257-993.4V710.5l-101.6-32.6C838.4,543.7,429.9,173.6,241.9-242.6C123-507.3,100-641.5,100-1096c1.9-479.5,23-592.6,172.6-895.6c224.4-456.5,625.2-780.6,1137.3-922.5l186-51.8H5000h3404.1l186,51.8c512.1,141.9,912.9,466,1137.3,922.5c149.6,303,170.7,416.2,172.6,895.6c0,372.1-3.8,427.7-44.1,571.5C9767.7-202.3,9616.2,56.6,9386,279c-354.8,343.3-690.4,481.4-1214,498.6l-287.7,11.5l-55.6,161.1c-76.7,230.1-168.8,375.9-345.2,554.2c-126.6,126.6-187.9,170.7-335.6,245.5c-99.7,47.9-251.2,107.4-335.6,128.5c-178.3,47.9-596.4,69-751.8,42.2l-99.7-19.2L5849.6,2076c-203.3,324.1-604.1,684.7-955.1,861.1C4526.3,3121.2,4027.7,3213.3,3590.4,3178.8z M4050.7,2555.5c155.3-15.3,406.6-90.1,552.3-163c452.6-228.2,728.8-546.6,943.6-1085.5c40.3-97.8,74.8-178.3,80.5-178.3c5.7,0,84.4,34.5,176.4,74.8c218.6,97.8,356.7,124.7,602.2,113.2c345.2-17.3,583-132.3,736.4-358.6c117-168.8,159.2-324.1,159.2-577.3V173.6l552.3-7.7c537-7.7,554.3-7.7,678.9-57.5c354.8-134.2,588.8-375.9,709.6-723c40.3-113.1,44.1-161.1,44.1-471.8c0-312.6-3.8-358.6-46-485.2c-140-427.7-504.4-719.2-968.5-772.9c-205.2-23-6338.3-23-6543.6,0c-366.3,42.2-655.9,220.5-851.5,521.6c-134.2,209-163,335.6-163,736.4c0,377.8,13.4,443,132.3,671.2c80.6,157.3,276.2,347.1,443,435.4c168.8,88.2,293.4,122.7,537,149.6c105.5,13.4,193.7,24.9,197.5,26.8c1.9,3.8-9.6,99.7-26.9,214.8c-40.3,272.3-28.8,629,28.8,828.5c211,728.8,847.7,1260,1591.8,1327.1C3780.3,2580.4,3826.3,2580.4,4050.7,2555.5z"/><path d="M3498.4,1172.7c-7.7-5.8-13.4-366.3-13.4-799.7v-788.2L3160.8-91.1L2836.7,233L2623.8,35.5C2506.9-73.8,2411-169.7,2411-179.3c0-7.7,312.6-329.9,694.3-715.4l692.3-701.9l696.2,705.8l694.2,705.7L4984.7,22.1c-113.2,113.1-212.9,205.2-224.4,205.2c-9.6,0-163-143.8-339.5-320.3l-322.2-322.2v801.7v799.7h-293.4C3642.2,1186.2,3504.1,1180.4,3498.4,1172.7z"/></g></g>
</svg>